Data curation: The case of Call Reports – notes
…
date
Date32
ffiec_scan_pqs(db, "ffiec_date")

bool
Boolean
ffiec_scan_pqs(db, "ffiec_bool")

We can use the data set ffiec_items to find out where a variable is located, based on its Arrow type.

ffiec_items

# A tibble: 5,141 × 5
   item     mnemonic item_code item_name                               data_type
   <chr>    <chr>    <chr>     <chr>                                   <chr>    
 1 RCFA2170 RCFA     2170      Total assets                            Float64  
 2 RCFA3128 RCFA     3128      Allocated transfer risk reserves        Float64  
 3 RCFA3792 RCFA     3792      Total qualifying capital allowable und… Float64  
 4 RCFA5310 RCFA     5310      General loan and lease valuation allow… Float64  
 5 RCFA5311 RCFA     5311      Tier 2 (supplementary) capital          Float64  
 6 RCFA7204 RCFA     7204      Tier 1 leverage capital ratio           Float64  
 7 RCFA7205 RCFA     7205      Total risk-based capital ratio          Float64  
 8 RCFA7206 RCFA     7206      Tier 1 risk-based capital ratio         Float64  
 9 RCFA8274 RCFA     8274      Tier 1 capital allowable under the ris… Float64  
10 RCFAA223 RCFA     A223      Risk-weighted assets (net of allowance… Float64  
# ℹ 5,131 more rows
…
# A tibble: 2 × 2
  imbalance_flag      n
  <lgl>           <int>
1 FALSE          662164
2 TRUE              199

The vast majority of apparent imbalances are small …

balanced |>
  filter(imbalance_flag) |>
  select(IDRSSD, date, total_assets, imbalance) |>
  arrange(desc(imbalance))

# A tibble: 199 × 4
    IDRSSD date       total_assets imbalance
     <int> <date>            <dbl>     <dbl>
 1 1362246 2002-06-30       278586      5334
 2  664653 2002-03-31        25490       224
 3 2821825 2001-03-31        55220        30
 4  678931 2001-09-30        31237        10
 5  178150 2004-03-31       103939        10
 6  842358 2002-06-30       202388        10
 7 3097243 2005-06-30        40939        10
 8  545604 2001-06-30       246223        10
 9  293053 2002-03-31       314157        10
10  920733 2001-12-31        48439        10
# ℹ 189 more rows

… and they’re all at least twenty years ago.

balanced |>
  filter(imbalance_flag) |>
  select(IDRSSD, date, total_assets, imbalance) |>
  arrange(desc(date))

# A tibble: 199 × 4
    IDRSSD date       total_assets imbalance
     <int> <date>            <dbl>     <dbl>
 1   33549 2005-06-30        43865         3
 2 3097243 2005-06-30        40939        10
 3   20147 2005-06-30        48130       -10
 4   22954 2005-06-30        65027       -10
 5  773546 2005-06-30        97558         2
 6  475756 2005-06-30        68158         2
 7  131940 2005-06-30        27432         8
 8   42037 2005-03-31        60913         2
 9 2646327 2005-03-31        98814        -8
10  827953 2005-03-31        50080         5
# ℹ 189 more rows
…
