Some benchmarks with comp.g_secd – notes
…
g_secd <- tbl(db, Id(schema = "comp", table = "g_secd"))

With dbplyr, we can write the query as follows.12

g_secd |>
  count(curcdd) |>
  arrange(desc(n)) |>
  collect() |>
  system_time()

   user  system elapsed 
  0.014   0.006  37.993 

# A tibble: 115 × 2
   curcdd        n
   <chr>   <int64>
 1 EUR    48037544
 2 JPY    31823971
 3 CNY    25635258
 4 INR    20653714
 5 GBP    20619033
 6 KRW    15641761
 7 HKD    14697439
 8 AUD    13800095
 9 TWD    11646012
10 THB     8980840
# ℹ 105 more rows
…
g_secd <- load_parquet(db, table = "g_secd", schema = "comp")

Now, we can run exactly the same query as we did for the WRDS PostgreSQL server.

g_secd |>
  count(curcdd) |>
  arrange(desc(n)) |>
  collect() |>
  system_time()

   user  system elapsed 
  1.490   0.108   0.169 

# A tibble: 115 × 2
   curcdd        n
   <chr>     <dbl>
 1 EUR    48130467
 2 JPY    31841749
 3 CNY    25687260
 4 INR    20676444
 5 GBP    20636852
 6 KRW    15657569
 7 HKD    14717583
 8 AUD    13812258
 9 TWD    11656464
10 THB     8987656
# ℹ 105 more rows
…
