Getting SEC EDGAR XBRL data – notes
…
  paste(res$col_type, collapse = "")
}

get_coltypes_str(sub)

[1] "cdcccccccccccccccccccdcdccddcdTddcdcddcd"

Even though read_tsv() is able to guess most types, it is generally best to look at the data. In this case, we can see that four columns are actually dates coded as numbers of the form yyyymmdd.

sub |>
  select(changed, filed, period, floatdate) |>
  arrange(floatdate)

# A tibble: 7,117 × 4
    changed    filed   period floatdate
      <dbl>    <dbl>    <dbl>     <dbl>
 1 20050502 20241004 20221231  20220630
 2 20080808 20241002 20240531  20221130
 3 20220308 20241028 20231231  20221231
 4       NA 20241009 20240731  20230131
 5 20101025 20241029 20230731  20230131
 6       NA 20241029 20240731  20230131
 7 20120910 20241029 20240731  20230131
 8 20101025 20241031 20230731  20230131
 9 20030416 20241029 20230930  20230331
10 20001117 20241002 20231231  20230630
# ℹ 7,107 more rows
…
[1] 7117

dbDisconnect(db)

I then do similar work for the remaining tables (dim, num, txt, ren, pre, and cal). I then put all of this inside a function get_notes_data(file) that downloads a .zip file and creates parquet files for each table. I can load this function by running the following code:

source(str_c("https://raw.githubusercontent.com/iangow/",
             "notes/refs/heads/main/published/get_dera_functions.R"))

This code also loads the function get_zip_files_df() that can be used to get the list of .zip files shown on SEC website.

zip_files <- get_zip_files_df()
zip_files

# A tibble: 77 × 2
   file              last_modified                
   <chr>             <chr>                        
 1 2026_01_notes.zip Wed, 04 Feb 2026 17:27:33 GMT
 2 2025_12_notes.zip Wed, 14 Jan 2026 20:59:24 GMT
 3 2025_11_notes.zip Thu, 15 Jan 2026 14:09:07 GMT
 4 2025_10_notes.zip Mon, 01 Dec 2025 14:48:45 GMT
 5 2025_09_notes.zip Tue, 18 Nov 2025 21:32:32 GMT
 6 2025_08_notes.zip Wed, 03 Sep 2025 16:10:15 GMT
 7 2025_07_notes.zip Tue, 05 Aug 2025 16:57:51 GMT
 8 2025_06_notes.zip Thu, 03 Jul 2025 18:46:28 GMT
 9 2025_05_notes.zip Tue, 03 Jun 2025 11:09:16 GMT
10 2025_04_notes.zip Wed, 07 May 2025 17:47:37 GMT
# ℹ 67 more rows
…
