Data curation and the data science workflow – notes
…
ℹ Use `spec()` to retrieve the full column specification for this data.
ℹ Specify the column types or set `show_col_types = FALSE` to quiet this message.

The next step we take is to inspect the columns to determine whether refinement of types makes sense. In practice, we can infer appropriate types by looking at the data.

We start with three of the numeric columns. The first three appear to be integers, either based on casual inspection of the values displayed or inferences from the variable names (e.g., “days since” seems likely to be an integer).

si_au_ref_names |> 
  select_if(is.numeric) |>
  select(1, 4:5)

# A tibble: 12,025 × 3
  SeniorSecurity ListDate_DaysSince DelistDate_DaysSince
           <dbl>              <dbl>                <dbl>
1              1              43355                   NA
2              1              42604                   NA
3              1              44699                   NA
4              1              42341                44060
5              1              45197                   NA
# ℹ 12,020 more rows
…
# A tibble: 1 × 4
  RecordCount GICSIndustry SIRCAIndustryClassCode SIRCASectorCode
  <lgl>       <lgl>        <lgl>                  <lgl>          
1 TRUE        TRUE         TRUE                   TRUE           

The remaining numeric variables appear to be dates in ymd form read by read_csv() as numeric variables.

si_au_ref_names |> 
  select_if(is.numeric) |>
  select(2:3)

# A tibble: 12,025 × 2
  ListDate_YMD DelistDate_YMD
         <dbl>          <dbl>
1     20180912             NA
2     20160822             NA
3     20220518             NA
4     20151203       20200817
5     20230928             NA
# ℹ 12,020 more rows

We can convert these columns to dates with the ymd() function. In the following code snippet, we convert the numeric variables to the types we determined to be appropriate through the analysis above. Here this code just tests that nothing untoward happens; we will actually implement these type conversions in code below.

si_au_ref_names |> 
  select_if(is.numeric) |>
  mutate(across(c(SeniorSecurity, ListDate_DaysSince, DelistDate_DaysSince,
                  RecordCount, GICSIndustry, SIRCAIndustryClassCode, 
                  SIRCASectorCode), as.integer),
         across(ends_with("_YMD"), ymd))

# A tibble: 12,025 × 9
  SeniorSecurity ListDate_YMD DelistDate_YMD ListDate_DaysSince
           <int> <date>       <date>                      <int>
1              1 2018-09-12   NA                          43355
2              1 2016-08-22   NA                          42604
3              1 2022-05-18   NA                          44699
4              1 2015-12-03   2020-08-17                  42341
5              1 2023-09-28   NA                          45197
# ℹ 12,020 more rows
# ℹ 5 more variables: DelistDate_DaysSince <int>, RecordCount <int>,
#   GICSIndustry <int>, SIRCAIndustryClassCode <int>,
#   SIRCASectorCode <int>

We can now move onto the 20 columns read as character vectors. The first five character vectors seem correctly identified as such.

si_au_ref_names |>
  select_if(is.character) |>
  select(1:5)

# A tibble: 12,025 × 5
  Gcode CompanyTicker SecurityTicker SecurityType AbreviatedSecurityDescr…¹
  <chr> <chr>         <chr>          <chr>        <chr>                    
1 14d1  14D           14D            01           ordinary                 
2 1ad1  1AD           1AD            01           ordinary                 
3 1ae1  1AE           1AE            01           ordinary                 
4 1al1  1AL           1AL            01           ordinary                 
5 1gov1 1GO           1GOV           07           etf units                
# ℹ 12,020 more rows
# ℹ abbreviated name: ¹​AbreviatedSecurityDescription

The same is true for character vectors 8 and 9 …

si_au_ref_names |>
  select_if(is.character) |>
  select(8:9) 

# A tibble: 12,025 × 2
  FullCompanyName                                AbbrevCompanyName   
  <chr>                                          <chr>               
1 1414 DEGREES LIMITED                           1414 DEGREES LIMITED
2 ADALTA LIMITED                                 ADALTA LIMITED      
3 AURORA ENERGY METALS LIMITED                   AURORAENERGYMETALS  
4 ONEALL INTERNATIONAL LIMITED                   ONEALL IN LIMITED   
5 VANECK 1-5 YEAR AUSTRALIAN GOVERNMENT BOND ETF VANECK 1-5 YR GOV   
# ℹ 12,020 more rows

… and character vectors 14 through 15 …

si_au_ref_names |>
  select_if(is.character) |>
  select(14:15) |>
  filter(if_all(everything(), \(x) !is.na(x)))

# A tibble: 23 × 2
  CompanyDelistReasonComment                                    AlteredLink
  <chr>                                                         <chr>      
1 converts to a trust by a one-for-one in specie issue in trus… [aqf] is o…
2 pursuant to scheme of arrangement with arrow pharmaceuticals… {awp2}[awp…
3 <18/02/2000>. Demerger. {bor1} (bor) boral limited split int… {bor1} (bo…
4 seven group holdings limited offers 170 cents plus 0.1116 {s… {bor1} (bo…
5 redomiciled to New Zealand after one for one share exchange … redomicile…
# ℹ 18 more rows
…
# A tibble: 1 × 5
  MS_CompanyID MS_SecurityID MS_CompanyID2 MS_SecurityID2 MA_Identifier
  <chr>        <chr>         <chr>         <chr>          <chr>        
1 0C00000O7P   0P000188J3    0C0000B4KQ    0P0001887N     MHJ          

This leaves character columns 12 and 13. Focusing on the cases where neither is NA, we see that these columns appear to be lists of codes separated by semi-colons (;).

si_au_ref_names |>
  select_if(is.character) |>
  select(12:13) |>
  filter(if_all(everything(), \(x) !is.na(x)))

# A tibble: 494 × 2
  CompanyDelistReasonCode CompanyRelatedGCode
  <chr>                   <chr>              
1 A                       ama2               
2 S;R;M                   mlb2               
3 A                       tai1               
4 A                       wgr1               
5 N                       aln2; agl1; agk1   
# ℹ 489 more rows

si_au_ref_names |>
  mutate(CompanyRelatedGCodes = CompanyRelatedGCode) |>
  filter(CompanyRelatedGCode != "") |>
  mutate(related_gcode = str_split(CompanyRelatedGCode, "[;\\s]+")) |>
  select(Gcode, CompanyRelatedGCode, related_gcode) 

# A tibble: 497 × 3
  Gcode CompanyRelatedGCode related_gcode
  <chr> <chr>               <list>       
1 4wd1  ama2                <chr [1]>    
2 5gn1  mlb2                <chr [1]>    
3 a1c1  tai1                <chr [1]>    
4 aag2  wgr1                <chr [1]>    
5 aan2  aln2; agl1; agk1    <chr [3]>    
# ℹ 492 more rows

si_au_ref_names |>
  filter(CompanyRelatedGCode != "") |>
  mutate(related_gcode = str_split(CompanyRelatedGCode, "[;\\s]+")) |>
  unnest(related_gcode) |>
  select(Gcode, CompanyRelatedGCode, related_gcode) 

# A tibble: 531 × 3
  Gcode CompanyRelatedGCode related_gcode
  <chr> <chr>               <chr>        
1 4wd1  ama2                ama2         
2 5gn1  mlb2                mlb2         
3 a1c1  tai1                tai1         
4 aag2  wgr1                wgr1         
5 aan2  aln2; agl1; agk1    aln2         
# ℹ 526 more rows
…
E-x
1

Given the issues apparent in both CompanyRelatedGCode and CompanyDelistReasonCode, I have elected to collect those, but keep them as simple character columns.

For those keeping track, we have four character columns left. It turns out that the name for each of these ends with Date. In the following, I focus on the observations with non-NA values in all of these columns.

si_au_ref_names |>
  select_if(is.character) |>
  select(ends_with("Date")) |>
  filter(if_all(everything(), \(x) !is.na(x)))

# A tibble: 5,400 × 4
  ListDate   DelistDate EarliestListDate LatestDelistDate
  <chr>      <chr>      <chr>            <chr>           
1 03/12/2015 17/08/2020 03/12/2015       17/08/2020      
2 14/06/2019 11/04/2023 14/06/2019       11/04/2023      
3 02/03/2021 16/05/2023 02/03/2021       29/08/2023      
4 17/05/2023 13/06/2023 02/03/2021       29/08/2023      
5 14/06/2023 29/08/2023 02/03/2021       29/08/2023      
# ℹ 5,395 more rows

From the above, it seems clear that we have dates in dmy form. It turns out that a couple of observations have the value "0/01/1900", which is not a valid date and I convert these to missing values using the code below.

si_au_ref_names |>
  select(ends_with("Date")) |>
  mutate(across(ends_with("Date"), 
                \(x) dmy(if_else(x == "0/01/1900", NA, x))))

# A tibble: 12,025 × 4
  ListDate   DelistDate EarliestListDate LatestDelistDate
  <date>     <date>     <date>           <date>          
1 2018-09-12 NA         2018-09-12       NA              
2 2016-08-22 NA         2016-08-22       NA              
3 2022-05-18 NA         2022-05-18       NA              
4 2015-12-03 2020-08-17 2015-12-03       2020-08-17      
5 2023-09-28 NA         2023-09-28       NA              
# ℹ 12,020 more rows
…
