Converting lazy data frames into Parquet files – notes
…
   user  system elapsed 
 29.016   3.545 102.865 

dbDisconnect(wrds)

Now we have downloaded the data, let’s take a look.

crsp_daily <- read_parquet("crsp_daily.parquet") 
crsp_daily

# A tibble: 72,394,137 × 4
   permno date           ret ret_excess
    <int> <date>       <dbl>      <dbl>
 1  10000 1986-01-08 -0.0244    -0.0247
 2  10000 1986-01-09  0         -0.0003
 3  10000 1986-01-10  0         -0.0003
 4  10000 1986-01-13  0.05       0.0497
 5  10000 1986-01-14  0.0476     0.0473
 6  10000 1986-01-15  0.0455     0.0452
 7  10000 1986-01-16  0.0435     0.0432
 8  10000 1986-01-17  0         -0.0003
 9  10000 1986-01-20  0         -0.0003
10  10000 1986-01-21  0         -0.0003
# ℹ 72,394,127 more rows
…
