Retail sales – notes
…
As can be seen in the output above, read_csv() will attempt to infer a number of features of the data. For example, the first row of the CSV file is assumed to provide the names the columns of the resulting data frame:

industry,state,date,sales,ind_level,parent_industry

Additionally, read_csv() will guess the appropriate type for each column. From the output above, we can see that industry, state, and parent_industry are imported as character columns, that date has type date, and that sales and ind_level have type dbl (“double” being the R type for storing real numbers).

The data in retail_sales are monthly estimates of turnover [sales in dollars] and volumes for retail businesses, including store and online sales, by industry group and industry subgroup. According to the ABS, “estimates of turnover are compiled from the monthly Retail Business Survey. About 700 ‘large’ businesses are included in the survey every month, while a sample of about 2,700 ‘smaller’ businesses is selected.”

We can take a peek at the first few rows of data by typing retail_sales in the R console:

retail_sales

# A tibble: 96,957 × 6
   industry                     state date       sales ind_level parent_industry
   <chr>                        <chr> <date>     <dbl>     <dbl> <chr>          
 1 Cafes, restaurants and cate… Aust… 1982-04-01   4.4         2 Cafes, restaur…
 2 Cafes, restaurants and cate… New … 1982-04-01  61.8         2 Cafes, restaur…
 3 Cafes, restaurants and cate… Nort… 1982-04-01  NA           2 Cafes, restaur…
 4 Cafes, restaurants and cate… Quee… 1982-04-01  18.7         2 Cafes, restaur…
 5 Cafes, restaurants and cate… Sout… 1982-04-01  14.3         2 Cafes, restaur…
 6 Cafes, restaurants and cate… Tasm… 1982-04-01   1.9         2 Cafes, restaur…
 7 Cafes, restaurants and cate… Tota… 1982-04-01 146.          2 Cafes, restaur…
 8 Cafes, restaurants and cate… Vict… 1982-04-01  36.4         2 Cafes, restaur…
 9 Cafes, restaurants and cate… West… 1982-04-01   8           2 Cafes, restaur…
10 Cafes, restaurants and take… Aust… 1982-04-01   7.6         1 Total (Industr…
# ℹ 96,947 more rows
…
abs_data <-
  read_abs("8501.0") |>
  filter(table_title == table) |>
  separate_wider_regex(series,
                       c(label = "^.*", ";\\s+", 
                         state = ".*?", "\\s*;\\s*",
                         industry = ".*?", "\\s*;$")) |>
  mutate(label = str_trim(label)) |>
  select(industry, state, date, value) |>
  rename(sales = value) |>
  arrange(date, industry, state)

abs_data

# A tibble: 96,957 × 4
   industry                                      state          date       sales
   <chr>                                         <chr>          <date>     <dbl>
 1 Cafes, restaurants and catering services      Australian Ca… 1982-04-01   4.4
 2 Cafes, restaurants and catering services      New South Wal… 1982-04-01  61.8
 3 Cafes, restaurants and catering services      Northern Terr… 1982-04-01  NA  
 4 Cafes, restaurants and catering services      Queensland     1982-04-01  18.7
 5 Cafes, restaurants and catering services      South Austral… 1982-04-01  14.3
 6 Cafes, restaurants and catering services      Tasmania       1982-04-01   1.9
 7 Cafes, restaurants and catering services      Total (State)  1982-04-01 146. 
 8 Cafes, restaurants and catering services      Victoria       1982-04-01  36.4
 9 Cafes, restaurants and catering services      Western Austr… 1982-04-01   8  
10 Cafes, restaurants and takeaway food services Australian Ca… 1982-04-01   7.6
# ℹ 96,947 more rows
…
