Shared code – notes
…
In fact, this is essentially the approach taken in code you can find on the internet (e.g., SAS code here or here or Stata code here).

However, one can do better. The function get_ff_ind() in my R package farr gets all the data from Ken French’s website. One simply specifies the classification desired (e.g., 48-industry using 48) and gets back a table. As you can see, it takes a fraction of a second.

library(farr)
ff_data <- get_ff_ind(48) |> system_time()

   user  system elapsed 
  0.090   0.019   0.297 

ff_data

# A tibble: 598 × 6
   ff_ind ff_ind_short_desc ff_ind_desc   sic_min sic_max sic_desc              
    <int> <chr>             <chr>           <int>   <int> <chr>                 
 1      1 Agric             Agriculture       100     199 Agricultural producti…
 2      1 Agric             Agriculture       200     299 Agricultural producti…
 3      1 Agric             Agriculture       700     799 Agricultural services 
 4      1 Agric             Agriculture       910     919 Commercial fishing    
 5      1 Agric             Agriculture      2048    2048 Prepared feeds for an…
 6      2 Food              Food Products    2000    2009 Food and kindred prod…
 7      2 Food              Food Products    2010    2019 Meat products         
 8      2 Food              Food Products    2020    2029 Dairy products        
 9      2 Food              Food Products    2030    2039 Canned & preserved fr…
10      2 Food              Food Products    2040    2046 Flour and other grain…
# ℹ 588 more rows
…
