Responsive open-source software: Two examples from dbplyr – notes
…
   user  system elapsed 
  0.030   0.008   1.377 

This code runs in about one second and is quite easy to follow. The following is a sample of the resulting data frame.

event_rets

# A tibble: 2,089 × 4
   permno date            ret eventdate 
    <int> <date>        <dbl> <date>    
 1  50906 1994-01-14  0.0377  1994-01-17
 2  50906 1994-01-17  0.00990 1994-01-17
 3  50906 1994-01-18 -0.00654 1994-01-17
 4  50906 1994-01-19  0.00658 1994-01-17
 5  50906 1994-01-20 -0.0392  1994-01-17
 6  47730 2005-08-26 -0.0249  2005-08-29
 7  47730 2005-08-29  0.0115  2005-08-29
 8  47730 2005-08-30 -0.00155 2005-08-29
 9  47730 2005-08-31  0.0248  2005-08-29
10  47730 2005-09-01 -0.00857 2005-08-29
# ℹ 2,079 more rows
…
