Stock returns on Yahoo Finance – notes
…
library(tidyquant)
library(tidyverse)
library(farr)
library(DBI)

In this note, I focus on the Coca-Cola Company (ticker symbol KO). While, in principle, I could download historical stock prices directly from https://finance.yahoo.com/quote/KO/history/, I find it easier to use tq_get() from the tidyquant package to get these prices.

ko_prices <- tq_get("KO", from = "2017-01-01", to = "2024-12-31")

If we look at the data, we see the following:

ko_prices

# A tibble: 2,011 × 8
   symbol date        open  high   low close   volume adjusted
   <chr>  <date>     <dbl> <dbl> <dbl> <dbl>    <dbl>    <dbl>
 1 KO     2017-01-03  41.5  41.8  41.3  41.8 14711000     31.5
 2 KO     2017-01-04  41.9  42.0  41.6  41.7  9959400     31.4
 3 KO     2017-01-05  41.7  41.9  41.5  41.8  8968300     31.5
 4 KO     2017-01-06  41.7  41.8  41.5  41.7 10246600     31.5
 5 KO     2017-01-09  41.2  41.6  41.2  41.3 14822500     31.2
 6 KO     2017-01-10  41.4  41.4  40.9  41.0 19706800     30.9
 7 KO     2017-01-11  40.8  41.1  40.8  41.0  9266200     31.0
 8 KO     2017-01-12  41.0  41.0  40.8  41.0  8541200     30.9
 9 KO     2017-01-13  41    41.0  40.7  40.9  8123500     30.8
10 KO     2017-01-17  40.8  41.3  40.8  41.2 12469400     31.1
# ℹ 2,001 more rows
…
Figure 1: Ratio of adjusted to close over time

We can see a couple of things in Figure 1. First, the adj_ratio (defined as adjusted divided by close) equals one at the end of the period of our data set. Second, it appears that adj_ratio is a step function with respect to time: it is constant for periods, then steps up in discrete amounts on certain dates. This latter fact is consistent with “corporate actions such as dividends” occurring relatively infrequently on discrete dates.

In practice, the most common “corporate action” is the payment of dividends and we can get data on dividends using tq_get() with the argument get = "dividends".

ko_divs <- tq_get("KO", from = "2017-01-01", to = "2024-12-31", 
                  get = "dividends")

Here it seems that Coca-Cola pays quarterly dividends that can vary from one year to the next:

ko_divs |> arrange(desc(date)) 

# A tibble: 32 × 3
   symbol date       value
   <chr>  <date>     <dbl>
 1 KO     2024-11-29 0.485
 2 KO     2024-09-13 0.485
 3 KO     2024-06-14 0.485
 4 KO     2024-03-14 0.485
 5 KO     2023-11-30 0.46 
 6 KO     2023-09-14 0.46 
 7 KO     2023-06-15 0.46 
 8 KO     2023-03-16 0.46 
 9 KO     2022-11-30 0.44 
10 KO     2022-09-15 0.44 
# ℹ 22 more rows
…
The standard measure of returns on CRSP is ret and I compare this with ret_yahoo (calculated using adjusted stock prices) and with ret_std, calculated using the “standard” formula discussed above. As can be seen below, the CRSP calculation (ret) and the standard formula (ret_std) line up pretty much perfectly.

crsp_rets_ko |>
  inner_join(ko_rets, by = "date", copy = TRUE) |>
  mutate(ret_std = (close + adj_amt) / lag_close - 1) |>
  filter(adj_amt != 0) |>
  select(date, ret_yahoo, ret_std, ret) |>
  arrange(desc(date)) |>
  collect()

# A tibble: 32 × 4
   date        ret_yahoo    ret_std       ret
   <date>          <dbl>      <dbl>     <dbl>
 1 2024-11-29  0.002111   0.002095   0.002095
 2 2024-09-13  0.009400   0.009336   0.009336
 3 2024-06-14  0.0007198  0.0007144  0.000714
 4 2024-03-14 -0.002226  -0.002209  -0.002209
 5 2023-11-30  0.01160    0.01151    0.01151 
 6 2023-09-14  0.008279   0.008214   0.008214
 7 2023-06-15  0.01374    0.01364    0.01364 
 8 2023-03-16  0.005503   0.005461   0.005461
 9 2022-11-30  0.02531    0.02513    0.02513 
10 2022-09-15 -0.01359   -0.01349   -0.01349 
# ℹ 22 more rows
…
Finally, I focus on those dates where adj_amt is non-zero so that I can check that ret from CRSP equals ret_adj, the return calculated from adjusted in ko_prices_alt.

crsp_rets_ko |>
  inner_join(ko_rets_alt, by = "date", copy = TRUE) |>
  filter(adj_amt != 0) |>
  select(date, ret_adj, ret) |>
  arrange(desc(date)) |>
  collect() 

# A tibble: 32 × 3
   date          ret_adj       ret
   <date>          <dbl>     <dbl>
 1 2024-11-29  0.002095   0.002095
 2 2024-09-13  0.009336   0.009336
 3 2024-06-14  0.0007144  0.000714
 4 2024-03-14 -0.002209  -0.002209
 5 2023-11-30  0.01151    0.01151 
 6 2023-09-14  0.008214   0.008214
 7 2023-06-15  0.01364    0.01364 
 8 2023-03-16  0.005461   0.005461
 9 2022-11-30  0.02513    0.02513 
10 2022-09-15 -0.01349   -0.01349 
# ℹ 22 more rows
…
